F	4	+2.3e-10	+1.4e-10	0	1	0	0	0
F	5	-2.3e-10	+1.4e-10	0	1	0    0    0
N	7	+0.0e-10	+3.9e-10	0	1	0	0	0
C	0	+0.0e-10	-1.4e-10	0	1	0	0	0
C	0	+1.2e-10	-0.7e-10	0	1	0	0	0
C	0	+1.2e-10	+0.7e-10	0	1	0	0	0
C	0	+0.0e-10	+1.4e-10	0	1	0	0	0
C	0	-1.2e-10	+0.7e-10	0	1	0	0	0
C	0	-1.2e-10	-0.7e-10	0	1	0	0	0
H	1	-2.2e-10	-1.3e-10	0	1	0	0	0
H	2	+0.0e-10	-2.5e-10	0	1	0	0	0
H	3	+2.2e-10	-1.3e-10	0	1	0	0	0
C	6	+0.0e-10	+2.7e-10	0	1	0	0	0
